{
    "disable_existing_loggers": false, 
    "incremental": true, 
    "loggers": {
        "importer": {
            "propagate": false, 
            "handlers": [
                "console"
            ], 
            "level": "WARN",
            "formatter": "verbose"
        }
    }, 
    "root":{
        "propagate": false, 
        "handlers": [
            "console"
        ], 
        "level": "DEBUG",
        "formatter": "verbose"
    },
    "version": 1
}
